{
  "$id": "esta:e173:resource-class",
  "$schema": "https://json-schema.org/draft/2019-09/schema",
  "title": "E1.73 UDR: Resource Class",
  "description": "The schema for E1.73 UDR: Resource Class",
  "type": "object",
  "properties": {
    "@name": {
      "type": "string"
    },
    "@description": {
      "type": "string"
    },
    "mediaType": {
      "type": "array",
      "minItems": 1,
      "items": {
        "type": "string",
        "pattern": "^.+/.+$"
      }
    }
  },
  "required": ["@name", "mediaType"]
}
